#DATASET STATISTICS

x_train + validation size= 272
x_test size= 135
#train+validation batch statistics
positives:0.231618    negatives:0.400735    neutral:0.367647
#test batch statistics
positives:0.251852    negatives:0.385185    neutral:0.362963
__________________________________________________________________________________________________
Layer (type)                    Output Shape         Param #     Connected to                     
==================================================================================================
input_1 (InputLayer)            (None, 60, 300, 1)   0                                            
__________________________________________________________________________________________________
conv2d_1 (Conv2D)               (None, 21, 1, 16)    192016      input_1[0][0]                    
__________________________________________________________________________________________________
conv2d_2 (Conv2D)               (None, 16, 1, 16)    216016      input_1[0][0]                    
__________________________________________________________________________________________________
conv2d_3 (Conv2D)               (None, 11, 1, 16)    240016      input_1[0][0]                    
__________________________________________________________________________________________________
max_pooling2d_1 (MaxPooling2D)  (None, 1, 1, 16)     0           conv2d_1[0][0]                   
__________________________________________________________________________________________________
max_pooling2d_2 (MaxPooling2D)  (None, 1, 1, 16)     0           conv2d_2[0][0]                   
__________________________________________________________________________________________________
max_pooling2d_3 (MaxPooling2D)  (None, 1, 1, 16)     0           conv2d_3[0][0]                   
__________________________________________________________________________________________________
concatenate_1 (Concatenate)     (None, 3, 1, 16)     0           max_pooling2d_1[0][0]            
                                                                 max_pooling2d_2[0][0]            
                                                                 max_pooling2d_3[0][0]            
__________________________________________________________________________________________________
flatten_1 (Flatten)             (None, 48)           0           concatenate_1[0][0]              
__________________________________________________________________________________________________
dropout_1 (Dropout)             (None, 48)           0           flatten_1[0][0]                  
__________________________________________________________________________________________________
dense_1 (Dense)                 (None, 3)            147         dropout_1[0][0]                  
==================================================================================================
Total params: 648,195
Trainable params: 648,195
Non-trainable params: 0
__________________________________________________________________________________________________
Train on 190 samples, validate on 82 samples
Epoch 1/60

 32/190 [====>.........................] - ETA: 2s - loss: 2.5988 - acc: 0.3125 - f1: 0.3175
 64/190 [=========>....................] - ETA: 1s - loss: 2.0775 - acc: 0.3281 - f1: 0.3200
 96/190 [==============>...............] - ETA: 0s - loss: 2.1367 - acc: 0.2708 - f1: 0.2689
128/190 [===================>..........] - ETA: 0s - loss: 2.0173 - acc: 0.2891 - f1: 0.2823
160/190 [========================>.....] - ETA: 0s - loss: 1.9234 - acc: 0.2875 - f1: 0.2801
190/190 [==============================] - 1s 7ms/step - loss: 1.8624 - acc: 0.3000 - f1: 0.2866 - val_loss: 1.2563 - val_acc: 0.3171 - val_f1: 0.3224
Epoch 2/60

 32/190 [====>.........................] - ETA: 0s - loss: 0.6549 - acc: 0.7188 - f1: 0.7419
 64/190 [=========>....................] - ETA: 0s - loss: 0.7076 - acc: 0.7188 - f1: 0.7303
 96/190 [==============>...............] - ETA: 0s - loss: 0.7662 - acc: 0.6771 - f1: 0.6566
128/190 [===================>..........] - ETA: 0s - loss: 0.7424 - acc: 0.6797 - f1: 0.6564
160/190 [========================>.....] - ETA: 0s - loss: 0.7961 - acc: 0.6562 - f1: 0.6336
190/190 [==============================] - 1s 4ms/step - loss: 0.8172 - acc: 0.6368 - f1: 0.6125 - val_loss: 1.1732 - val_acc: 0.2927 - val_f1: 0.1774
Epoch 3/60

 32/190 [====>.........................] - ETA: 0s - loss: 0.5627 - acc: 0.8125 - f1: 0.8197
 64/190 [=========>....................] - ETA: 0s - loss: 0.5348 - acc: 0.7969 - f1: 0.7969
 96/190 [==============>...............] - ETA: 0s - loss: 0.4975 - acc: 0.8125 - f1: 0.8170
128/190 [===================>..........] - ETA: 0s - loss: 0.4742 - acc: 0.8203 - f1: 0.8270
160/190 [========================>.....] - ETA: 0s - loss: 0.5063 - acc: 0.8125 - f1: 0.8190
190/190 [==============================] - 1s 4ms/step - loss: 0.5076 - acc: 0.8105 - f1: 0.8149 - val_loss: 1.1392 - val_acc: 0.3659 - val_f1: 0.2188
Epoch 4/60

 32/190 [====>.........................] - ETA: 0s - loss: 0.2773 - acc: 0.9375 - f1: 0.9206
 64/190 [=========>....................] - ETA: 0s - loss: 0.2556 - acc: 0.9531 - f1: 0.9365
 96/190 [==============>...............] - ETA: 0s - loss: 0.2899 - acc: 0.9167 - f1: 0.9039
128/190 [===================>..........] - ETA: 0s - loss: 0.2873 - acc: 0.9297 - f1: 0.9201
160/190 [========================>.....] - ETA: 0s - loss: 0.3078 - acc: 0.9125 - f1: 0.9028
190/190 [==============================] - 1s 4ms/step - loss: 0.3147 - acc: 0.9053 - f1: 0.9018 - val_loss: 1.1622 - val_acc: 0.3537 - val_f1: 0.2325
Epoch 5/60

 32/190 [====>.........................] - ETA: 0s - loss: 0.1667 - acc: 1.0000 - f1: 0.9841
 64/190 [=========>....................] - ETA: 0s - loss: 0.1976 - acc: 0.9844 - f1: 0.9683
 96/190 [==============>...............] - ETA: 0s - loss: 0.2022 - acc: 0.9792 - f1: 0.9684
128/190 [===================>..........] - ETA: 0s - loss: 0.2221 - acc: 0.9766 - f1: 0.9602
160/190 [========================>.....] - ETA: 0s - loss: 0.2530 - acc: 0.9688 - f1: 0.9488
190/190 [==============================] - 1s 4ms/step - loss: 0.2400 - acc: 0.9737 - f1: 0.9569 - val_loss: 1.1124 - val_acc: 0.4146 - val_f1: 0.2647
Epoch 6/60

 32/190 [====>.........................] - ETA: 0s - loss: 0.1721 - acc: 0.9375 - f1: 0.9375
 64/190 [=========>....................] - ETA: 0s - loss: 0.1673 - acc: 0.9531 - f1: 0.9531
 96/190 [==============>...............] - ETA: 0s - loss: 0.1535 - acc: 0.9688 - f1: 0.9635
128/190 [===================>..........] - ETA: 0s - loss: 0.1565 - acc: 0.9688 - f1: 0.9648
160/190 [========================>.....] - ETA: 0s - loss: 0.1571 - acc: 0.9750 - f1: 0.9687
190/190 [==============================] - 1s 4ms/step - loss: 0.1700 - acc: 0.9737 - f1: 0.9682 - val_loss: 1.1553 - val_acc: 0.3780 - val_f1: 0.2557
Epoch 7/60

 32/190 [====>.........................] - ETA: 0s - loss: 0.1047 - acc: 1.0000 - f1: 1.0000
 64/190 [=========>....................] - ETA: 0s - loss: 0.1425 - acc: 0.9844 - f1: 0.9762
 96/190 [==============>...............] - ETA: 0s - loss: 0.1502 - acc: 0.9792 - f1: 0.9737
128/190 [===================>..........] - ETA: 0s - loss: 0.1394 - acc: 0.9844 - f1: 0.9803
160/190 [========================>.....] - ETA: 0s - loss: 0.1404 - acc: 0.9812 - f1: 0.9780
190/190 [==============================] - 1s 4ms/step - loss: 0.1430 - acc: 0.9789 - f1: 0.9788 - val_loss: 1.1422 - val_acc: 0.4146 - val_f1: 0.2380
Epoch 8/60

 32/190 [====>.........................] - ETA: 0s - loss: 0.1135 - acc: 1.0000 - f1: 1.0000
 64/190 [=========>....................] - ETA: 0s - loss: 0.1076 - acc: 0.9844 - f1: 0.9844
 96/190 [==============>...............] - ETA: 0s - loss: 0.1054 - acc: 0.9896 - f1: 0.9896
128/190 [===================>..........] - ETA: 0s - loss: 0.1116 - acc: 0.9844 - f1: 0.9844
160/190 [========================>.....] - ETA: 0s - loss: 0.1151 - acc: 0.9875 - f1: 0.9875
190/190 [==============================] - 1s 4ms/step - loss: 0.1123 - acc: 0.9895 - f1: 0.9868 - val_loss: 1.1301 - val_acc: 0.4146 - val_f1: 0.2306
Epoch 9/60

 32/190 [====>.........................] - ETA: 0s - loss: 0.0582 - acc: 1.0000 - f1: 1.0000
 64/190 [=========>....................] - ETA: 0s - loss: 0.0713 - acc: 0.9844 - f1: 0.9844
 96/190 [==============>...............] - ETA: 0s - loss: 0.0933 - acc: 0.9792 - f1: 0.9737
128/190 [===================>..........] - ETA: 0s - loss: 0.0983 - acc: 0.9844 - f1: 0.9803
160/190 [========================>.....] - ETA: 0s - loss: 0.0937 - acc: 0.9875 - f1: 0.9842
190/190 [==============================] - 1s 4ms/step - loss: 0.0896 - acc: 0.9895 - f1: 0.9867 - val_loss: 1.2279 - val_acc: 0.3293 - val_f1: 0.3289
Epoch 10/60

 32/190 [====>.........................] - ETA: 0s - loss: 0.0384 - acc: 1.0000 - f1: 1.0000
 64/190 [=========>....................] - ETA: 0s - loss: 0.0553 - acc: 1.0000 - f1: 1.0000
 96/190 [==============>...............] - ETA: 0s - loss: 0.0640 - acc: 1.0000 - f1: 1.0000
128/190 [===================>..........] - ETA: 0s - loss: 0.0715 - acc: 1.0000 - f1: 0.9960
160/190 [========================>.....] - ETA: 0s - loss: 0.0739 - acc: 1.0000 - f1: 0.9968
190/190 [==============================] - 1s 4ms/step - loss: 0.0764 - acc: 1.0000 - f1: 0.9947 - val_loss: 1.1732 - val_acc: 0.4146 - val_f1: 0.2287
Epoch 11/60

 32/190 [====>.........................] - ETA: 0s - loss: 0.0487 - acc: 1.0000 - f1: 1.0000
 64/190 [=========>....................] - ETA: 0s - loss: 0.0540 - acc: 1.0000 - f1: 1.0000
 96/190 [==============>...............] - ETA: 0s - loss: 0.0513 - acc: 1.0000 - f1: 1.0000
128/190 [===================>..........] - ETA: 0s - loss: 0.0518 - acc: 1.0000 - f1: 0.9960
160/190 [========================>.....] - ETA: 0s - loss: 0.0484 - acc: 1.0000 - f1: 0.9968
190/190 [==============================] - 1s 4ms/step - loss: 0.0574 - acc: 0.9947 - f1: 0.9921 - val_loss: 1.2724 - val_acc: 0.3537 - val_f1: 0.3280
Epoch 12/60

 32/190 [====>.........................] - ETA: 0s - loss: 0.0482 - acc: 1.0000 - f1: 1.0000
 64/190 [=========>....................] - ETA: 0s - loss: 0.0535 - acc: 1.0000 - f1: 1.0000
 96/190 [==============>...............] - ETA: 0s - loss: 0.0569 - acc: 0.9896 - f1: 0.9896
128/190 [===================>..........] - ETA: 0s - loss: 0.0632 - acc: 0.9922 - f1: 0.9922
160/190 [========================>.....] - ETA: 0s - loss: 0.0586 - acc: 0.9938 - f1: 0.9937
190/190 [==============================] - 1s 4ms/step - loss: 0.0596 - acc: 0.9947 - f1: 0.9947 - val_loss: 1.2262 - val_acc: 0.3537 - val_f1: 0.3385
Epoch 13/60

 32/190 [====>.........................] - ETA: 0s - loss: 0.0359 - acc: 1.0000 - f1: 1.0000
 64/190 [=========>....................] - ETA: 0s - loss: 0.0283 - acc: 1.0000 - f1: 1.0000
 96/190 [==============>...............] - ETA: 0s - loss: 0.0383 - acc: 0.9896 - f1: 0.9947
128/190 [===================>..........] - ETA: 0s - loss: 0.0373 - acc: 0.9922 - f1: 0.9960
160/190 [========================>.....] - ETA: 0s - loss: 0.0360 - acc: 0.9938 - f1: 0.9968
190/190 [==============================] - 1s 4ms/step - loss: 0.0419 - acc: 0.9895 - f1: 0.9947 - val_loss: 1.2178 - val_acc: 0.4146 - val_f1: 0.3598
Epoch 14/60

 32/190 [====>.........................] - ETA: 0s - loss: 0.0090 - acc: 1.0000 - f1: 1.0000
 64/190 [=========>....................] - ETA: 0s - loss: 0.0137 - acc: 1.0000 - f1: 1.0000
 96/190 [==============>...............] - ETA: 0s - loss: 0.0151 - acc: 1.0000 - f1: 1.0000
128/190 [===================>..........] - ETA: 0s - loss: 0.0197 - acc: 1.0000 - f1: 1.0000
160/190 [========================>.....] - ETA: 0s - loss: 0.0221 - acc: 1.0000 - f1: 1.0000
190/190 [==============================] - 1s 4ms/step - loss: 0.0231 - acc: 1.0000 - f1: 1.0000 - val_loss: 1.1955 - val_acc: 0.4024 - val_f1: 0.3281
Epoch 15/60

 32/190 [====>.........................] - ETA: 0s - loss: 0.0236 - acc: 1.0000 - f1: 1.0000
 64/190 [=========>....................] - ETA: 0s - loss: 0.0329 - acc: 1.0000 - f1: 1.0000
 96/190 [==============>...............] - ETA: 0s - loss: 0.0336 - acc: 1.0000 - f1: 1.0000
128/190 [===================>..........] - ETA: 0s - loss: 0.0332 - acc: 1.0000 - f1: 1.0000
160/190 [========================>.....] - ETA: 0s - loss: 0.0299 - acc: 1.0000 - f1: 1.0000
190/190 [==============================] - 1s 4ms/step - loss: 0.0271 - acc: 1.0000 - f1: 1.0000 - val_loss: 1.1929 - val_acc: 0.4268 - val_f1: 0.3573
Epoch 16/60

 32/190 [====>.........................] - ETA: 0s - loss: 0.0071 - acc: 1.0000 - f1: 1.0000
 64/190 [=========>....................] - ETA: 0s - loss: 0.0327 - acc: 0.9844 - f1: 0.9844
 96/190 [==============>...............] - ETA: 0s - loss: 0.0397 - acc: 0.9896 - f1: 0.9896
128/190 [===================>..........] - ETA: 0s - loss: 0.0344 - acc: 0.9922 - f1: 0.9922
160/190 [========================>.....] - ETA: 0s - loss: 0.0321 - acc: 0.9938 - f1: 0.9937
190/190 [==============================] - 1s 4ms/step - loss: 0.0297 - acc: 0.9947 - f1: 0.9947 - val_loss: 1.2928 - val_acc: 0.3537 - val_f1: 0.3468
Epoch 17/60

 32/190 [====>.........................] - ETA: 0s - loss: 0.0267 - acc: 1.0000 - f1: 1.0000
 64/190 [=========>....................] - ETA: 0s - loss: 0.0291 - acc: 0.9844 - f1: 0.9844
 96/190 [==============>...............] - ETA: 0s - loss: 0.0255 - acc: 0.9896 - f1: 0.9896
128/190 [===================>..........] - ETA: 0s - loss: 0.0274 - acc: 0.9922 - f1: 0.9922
160/190 [========================>.....] - ETA: 0s - loss: 0.0276 - acc: 0.9938 - f1: 0.9937
190/190 [==============================] - 1s 4ms/step - loss: 0.0261 - acc: 0.9947 - f1: 0.9947 - val_loss: 1.1966 - val_acc: 0.4390 - val_f1: 0.3515
Epoch 18/60

 32/190 [====>.........................] - ETA: 0s - loss: 0.0098 - acc: 1.0000 - f1: 1.0000
 64/190 [=========>....................] - ETA: 0s - loss: 0.0118 - acc: 1.0000 - f1: 1.0000
 96/190 [==============>...............] - ETA: 0s - loss: 0.0120 - acc: 1.0000 - f1: 1.0000
128/190 [===================>..........] - ETA: 0s - loss: 0.0113 - acc: 1.0000 - f1: 1.0000
160/190 [========================>.....] - ETA: 0s - loss: 0.0108 - acc: 1.0000 - f1: 1.0000
190/190 [==============================] - 1s 4ms/step - loss: 0.0112 - acc: 1.0000 - f1: 1.0000 - val_loss: 1.2370 - val_acc: 0.4024 - val_f1: 0.3753
Epoch 19/60

 32/190 [====>.........................] - ETA: 0s - loss: 0.0128 - acc: 1.0000 - f1: 1.0000
 64/190 [=========>....................] - ETA: 0s - loss: 0.0102 - acc: 1.0000 - f1: 1.0000
 96/190 [==============>...............] - ETA: 0s - loss: 0.0149 - acc: 1.0000 - f1: 1.0000
128/190 [===================>..........] - ETA: 0s - loss: 0.0151 - acc: 1.0000 - f1: 1.0000
160/190 [========================>.....] - ETA: 0s - loss: 0.0149 - acc: 1.0000 - f1: 1.0000
190/190 [==============================] - 1s 4ms/step - loss: 0.0180 - acc: 1.0000 - f1: 1.0000 - val_loss: 1.2060 - val_acc: 0.4634 - val_f1: 0.4304
Epoch 20/60

 32/190 [====>.........................] - ETA: 0s - loss: 0.0130 - acc: 1.0000 - f1: 1.0000
 64/190 [=========>....................] - ETA: 0s - loss: 0.0165 - acc: 1.0000 - f1: 1.0000
 96/190 [==============>...............] - ETA: 0s - loss: 0.0261 - acc: 1.0000 - f1: 0.9947
128/190 [===================>..........] - ETA: 0s - loss: 0.0241 - acc: 1.0000 - f1: 0.9960
160/190 [========================>.....] - ETA: 0s - loss: 0.0208 - acc: 1.0000 - f1: 0.9968
190/190 [==============================] - 1s 4ms/step - loss: 0.0222 - acc: 1.0000 - f1: 0.9973 - val_loss: 1.2167 - val_acc: 0.5244 - val_f1: 0.4860
Epoch 21/60

 32/190 [====>.........................] - ETA: 0s - loss: 0.0070 - acc: 1.0000 - f1: 1.0000
 64/190 [=========>....................] - ETA: 0s - loss: 0.0149 - acc: 1.0000 - f1: 1.0000
 96/190 [==============>...............] - ETA: 0s - loss: 0.0116 - acc: 1.0000 - f1: 1.0000
128/190 [===================>..........] - ETA: 0s - loss: 0.0114 - acc: 1.0000 - f1: 1.0000
160/190 [========================>.....] - ETA: 0s - loss: 0.0135 - acc: 1.0000 - f1: 1.0000
190/190 [==============================] - 1s 4ms/step - loss: 0.0123 - acc: 1.0000 - f1: 1.0000 - val_loss: 1.1623 - val_acc: 0.4390 - val_f1: 0.3384
Epoch 22/60

 32/190 [====>.........................] - ETA: 0s - loss: 0.0137 - acc: 1.0000 - f1: 1.0000
 64/190 [=========>....................] - ETA: 0s - loss: 0.0127 - acc: 1.0000 - f1: 1.0000
 96/190 [==============>...............] - ETA: 0s - loss: 0.0121 - acc: 1.0000 - f1: 1.0000
128/190 [===================>..........] - ETA: 0s - loss: 0.0105 - acc: 1.0000 - f1: 1.0000
160/190 [========================>.....] - ETA: 0s - loss: 0.0135 - acc: 1.0000 - f1: 1.0000
190/190 [==============================] - 1s 4ms/step - loss: 0.0134 - acc: 1.0000 - f1: 1.0000 - val_loss: 1.2238 - val_acc: 0.4634 - val_f1: 0.4166
Epoch 23/60

 32/190 [====>.........................] - ETA: 0s - loss: 0.0118 - acc: 1.0000 - f1: 1.0000
 64/190 [=========>....................] - ETA: 0s - loss: 0.0137 - acc: 1.0000 - f1: 1.0000
 96/190 [==============>...............] - ETA: 0s - loss: 0.0157 - acc: 1.0000 - f1: 1.0000
128/190 [===================>..........] - ETA: 0s - loss: 0.0146 - acc: 1.0000 - f1: 1.0000
160/190 [========================>.....] - ETA: 0s - loss: 0.0127 - acc: 1.0000 - f1: 1.0000
190/190 [==============================] - 1s 4ms/step - loss: 0.0114 - acc: 1.0000 - f1: 1.0000 - val_loss: 1.2188 - val_acc: 0.4634 - val_f1: 0.3852
Epoch 24/60

 32/190 [====>.........................] - ETA: 0s - loss: 0.0253 - acc: 1.0000 - f1: 1.0000
 64/190 [=========>....................] - ETA: 0s - loss: 0.0180 - acc: 1.0000 - f1: 1.0000
 96/190 [==============>...............] - ETA: 0s - loss: 0.0144 - acc: 1.0000 - f1: 1.0000
128/190 [===================>..........] - ETA: 0s - loss: 0.0123 - acc: 1.0000 - f1: 1.0000
160/190 [========================>.....] - ETA: 0s - loss: 0.0125 - acc: 1.0000 - f1: 1.0000
190/190 [==============================] - 1s 4ms/step - loss: 0.0116 - acc: 1.0000 - f1: 1.0000 - val_loss: 1.2897 - val_acc: 0.4024 - val_f1: 0.3672
Epoch 25/60

 32/190 [====>.........................] - ETA: 0s - loss: 0.0067 - acc: 1.0000 - f1: 1.0000
 64/190 [=========>....................] - ETA: 0s - loss: 0.0092 - acc: 1.0000 - f1: 1.0000
 96/190 [==============>...............] - ETA: 0s - loss: 0.0080 - acc: 1.0000 - f1: 1.0000
128/190 [===================>..........] - ETA: 0s - loss: 0.0078 - acc: 1.0000 - f1: 1.0000
160/190 [========================>.....] - ETA: 0s - loss: 0.0072 - acc: 1.0000 - f1: 1.0000
190/190 [==============================] - 1s 4ms/step - loss: 0.0066 - acc: 1.0000 - f1: 1.0000 - val_loss: 1.2522 - val_acc: 0.4268 - val_f1: 0.3683
Epoch 26/60

 32/190 [====>.........................] - ETA: 0s - loss: 0.0091 - acc: 1.0000 - f1: 1.0000
 64/190 [=========>....................] - ETA: 0s - loss: 0.0221 - acc: 0.9844 - f1: 0.9844
 96/190 [==============>...............] - ETA: 0s - loss: 0.0167 - acc: 0.9896 - f1: 0.9896
128/190 [===================>..........] - ETA: 0s - loss: 0.0155 - acc: 0.9922 - f1: 0.9922
160/190 [========================>.....] - ETA: 0s - loss: 0.0150 - acc: 0.9938 - f1: 0.9937
190/190 [==============================] - 1s 4ms/step - loss: 0.0130 - acc: 0.9947 - f1: 0.9947 - val_loss: 1.2997 - val_acc: 0.4878 - val_f1: 0.3991
Epoch 27/60

 32/190 [====>.........................] - ETA: 0s - loss: 0.0105 - acc: 1.0000 - f1: 1.0000
 64/190 [=========>....................] - ETA: 0s - loss: 0.0071 - acc: 1.0000 - f1: 1.0000
 96/190 [==============>...............] - ETA: 0s - loss: 0.0055 - acc: 1.0000 - f1: 1.0000
128/190 [===================>..........] - ETA: 0s - loss: 0.0066 - acc: 1.0000 - f1: 1.0000
160/190 [========================>.....] - ETA: 0s - loss: 0.0075 - acc: 1.0000 - f1: 1.0000
190/190 [==============================] - 1s 4ms/step - loss: 0.0072 - acc: 1.0000 - f1: 1.0000 - val_loss: 1.4286 - val_acc: 0.3293 - val_f1: 0.3261
Epoch 28/60

 32/190 [====>.........................] - ETA: 0s - loss: 0.0060 - acc: 1.0000 - f1: 1.0000
 64/190 [=========>....................] - ETA: 0s - loss: 0.0062 - acc: 1.0000 - f1: 1.0000
 96/190 [==============>...............] - ETA: 0s - loss: 0.0059 - acc: 1.0000 - f1: 1.0000
128/190 [===================>..........] - ETA: 0s - loss: 0.0055 - acc: 1.0000 - f1: 1.0000
160/190 [========================>.....] - ETA: 0s - loss: 0.0050 - acc: 1.0000 - f1: 1.0000
190/190 [==============================] - 1s 4ms/step - loss: 0.0049 - acc: 1.0000 - f1: 1.0000 - val_loss: 1.2419 - val_acc: 0.5000 - val_f1: 0.4415
Epoch 29/60

 32/190 [====>.........................] - ETA: 0s - loss: 0.0033 - acc: 1.0000 - f1: 1.0000
 64/190 [=========>....................] - ETA: 0s - loss: 0.0077 - acc: 1.0000 - f1: 1.0000
 96/190 [==============>...............] - ETA: 0s - loss: 0.0062 - acc: 1.0000 - f1: 1.0000
128/190 [===================>..........] - ETA: 0s - loss: 0.0057 - acc: 1.0000 - f1: 1.0000
160/190 [========================>.....] - ETA: 0s - loss: 0.0070 - acc: 1.0000 - f1: 1.0000
190/190 [==============================] - 1s 4ms/step - loss: 0.0065 - acc: 1.0000 - f1: 1.0000 - val_loss: 1.3971 - val_acc: 0.4146 - val_f1: 0.3674
Epoch 30/60

 32/190 [====>.........................] - ETA: 0s - loss: 0.0022 - acc: 1.0000 - f1: 1.0000
 64/190 [=========>....................] - ETA: 0s - loss: 0.0037 - acc: 1.0000 - f1: 1.0000
 96/190 [==============>...............] - ETA: 0s - loss: 0.0125 - acc: 1.0000 - f1: 1.0000
128/190 [===================>..........] - ETA: 0s - loss: 0.0102 - acc: 1.0000 - f1: 1.0000
160/190 [========================>.....] - ETA: 0s - loss: 0.0092 - acc: 1.0000 - f1: 1.0000
190/190 [==============================] - 1s 4ms/step - loss: 0.0078 - acc: 1.0000 - f1: 1.0000 - val_loss: 1.4426 - val_acc: 0.3415 - val_f1: 0.3365
Epoch 31/60

 32/190 [====>.........................] - ETA: 0s - loss: 0.0012 - acc: 1.0000 - f1: 1.0000
 64/190 [=========>....................] - ETA: 0s - loss: 0.0011 - acc: 1.0000 - f1: 1.0000
 96/190 [==============>...............] - ETA: 0s - loss: 0.0028 - acc: 1.0000 - f1: 1.0000
128/190 [===================>..........] - ETA: 0s - loss: 0.0073 - acc: 1.0000 - f1: 1.0000
160/190 [========================>.....] - ETA: 0s - loss: 0.0067 - acc: 1.0000 - f1: 1.0000
190/190 [==============================] - 1s 4ms/step - loss: 0.0058 - acc: 1.0000 - f1: 1.0000 - val_loss: 1.3031 - val_acc: 0.4756 - val_f1: 0.3756
Epoch 32/60

 32/190 [====>.........................] - ETA: 0s - loss: 0.0020 - acc: 1.0000 - f1: 1.0000
 64/190 [=========>....................] - ETA: 0s - loss: 0.0026 - acc: 1.0000 - f1: 1.0000
 96/190 [==============>...............] - ETA: 0s - loss: 0.0023 - acc: 1.0000 - f1: 1.0000
128/190 [===================>..........] - ETA: 0s - loss: 0.0031 - acc: 1.0000 - f1: 1.0000
160/190 [========================>.....] - ETA: 0s - loss: 0.0039 - acc: 1.0000 - f1: 1.0000
190/190 [==============================] - 1s 4ms/step - loss: 0.0043 - acc: 1.0000 - f1: 1.0000 - val_loss: 1.3187 - val_acc: 0.4634 - val_f1: 0.4099
Epoch 33/60

 32/190 [====>.........................] - ETA: 0s - loss: 0.0018 - acc: 1.0000 - f1: 1.0000
 64/190 [=========>....................] - ETA: 0s - loss: 0.0081 - acc: 1.0000 - f1: 1.0000
 96/190 [==============>...............] - ETA: 0s - loss: 0.0059 - acc: 1.0000 - f1: 1.0000
128/190 [===================>..........] - ETA: 0s - loss: 0.0049 - acc: 1.0000 - f1: 1.0000
160/190 [========================>.....] - ETA: 0s - loss: 0.0043 - acc: 1.0000 - f1: 1.0000
190/190 [==============================] - 1s 4ms/step - loss: 0.0043 - acc: 1.0000 - f1: 1.0000 - val_loss: 1.3562 - val_acc: 0.4634 - val_f1: 0.4178
Epoch 34/60

 32/190 [====>.........................] - ETA: 0s - loss: 0.0016 - acc: 1.0000 - f1: 1.0000
 64/190 [=========>....................] - ETA: 0s - loss: 0.0020 - acc: 1.0000 - f1: 1.0000
 96/190 [==============>...............] - ETA: 0s - loss: 0.0040 - acc: 1.0000 - f1: 1.0000
128/190 [===================>..........] - ETA: 0s - loss: 0.0038 - acc: 1.0000 - f1: 1.0000
160/190 [========================>.....] - ETA: 0s - loss: 0.0044 - acc: 1.0000 - f1: 1.0000
190/190 [==============================] - 1s 4ms/step - loss: 0.0043 - acc: 1.0000 - f1: 1.0000 - val_loss: 1.4281 - val_acc: 0.3171 - val_f1: 0.2952
Epoch 35/60

 32/190 [====>.........................] - ETA: 0s - loss: 0.0018 - acc: 1.0000 - f1: 1.0000
 64/190 [=========>....................] - ETA: 0s - loss: 0.0033 - acc: 1.0000 - f1: 1.0000
 96/190 [==============>...............] - ETA: 0s - loss: 0.0041 - acc: 1.0000 - f1: 1.0000
128/190 [===================>..........] - ETA: 0s - loss: 0.0037 - acc: 1.0000 - f1: 1.0000
160/190 [========================>.....] - ETA: 0s - loss: 0.0032 - acc: 1.0000 - f1: 1.0000
190/190 [==============================] - 1s 4ms/step - loss: 0.0033 - acc: 1.0000 - f1: 1.0000 - val_loss: 1.3848 - val_acc: 0.5000 - val_f1: 0.4587
Epoch 36/60

 32/190 [====>.........................] - ETA: 0s - loss: 0.0035 - acc: 1.0000 - f1: 1.0000
 64/190 [=========>....................] - ETA: 0s - loss: 0.0020 - acc: 1.0000 - f1: 1.0000
 96/190 [==============>...............] - ETA: 0s - loss: 0.0019 - acc: 1.0000 - f1: 1.0000
128/190 [===================>..........] - ETA: 0s - loss: 0.0018 - acc: 1.0000 - f1: 1.0000
160/190 [========================>.....] - ETA: 0s - loss: 0.0020 - acc: 1.0000 - f1: 1.0000
190/190 [==============================] - 1s 4ms/step - loss: 0.0020 - acc: 1.0000 - f1: 1.0000 - val_loss: 1.4032 - val_acc: 0.4878 - val_f1: 0.4354
Epoch 37/60

 32/190 [====>.........................] - ETA: 0s - loss: 8.7658e-04 - acc: 1.0000 - f1: 1.0000
 64/190 [=========>....................] - ETA: 0s - loss: 0.0010 - acc: 1.0000 - f1: 1.0000    
 96/190 [==============>...............] - ETA: 0s - loss: 0.0057 - acc: 1.0000 - f1: 1.0000
128/190 [===================>..........] - ETA: 0s - loss: 0.0059 - acc: 1.0000 - f1: 1.0000
160/190 [========================>.....] - ETA: 0s - loss: 0.0049 - acc: 1.0000 - f1: 1.0000
190/190 [==============================] - 1s 4ms/step - loss: 0.0054 - acc: 1.0000 - f1: 1.0000 - val_loss: 1.5286 - val_acc: 0.3537 - val_f1: 0.3599
Epoch 38/60

 32/190 [====>.........................] - ETA: 0s - loss: 0.0061 - acc: 1.0000 - f1: 1.0000
 64/190 [=========>....................] - ETA: 0s - loss: 0.0058 - acc: 1.0000 - f1: 1.0000
 96/190 [==============>...............] - ETA: 0s - loss: 0.0040 - acc: 1.0000 - f1: 1.0000
128/190 [===================>..........] - ETA: 0s - loss: 0.0031 - acc: 1.0000 - f1: 1.0000
160/190 [========================>.....] - ETA: 0s - loss: 0.0028 - acc: 1.0000 - f1: 1.0000
190/190 [==============================] - 1s 4ms/step - loss: 0.0032 - acc: 1.0000 - f1: 1.0000 - val_loss: 1.3271 - val_acc: 0.4878 - val_f1: 0.4405
Epoch 39/60

 32/190 [====>.........................] - ETA: 0s - loss: 0.0022 - acc: 1.0000 - f1: 1.0000
 64/190 [=========>....................] - ETA: 0s - loss: 0.0020 - acc: 1.0000 - f1: 1.0000
 96/190 [==============>...............] - ETA: 0s - loss: 0.0022 - acc: 1.0000 - f1: 1.0000
128/190 [===================>..........] - ETA: 0s - loss: 0.0025 - acc: 1.0000 - f1: 1.0000
160/190 [========================>.....] - ETA: 0s - loss: 0.0045 - acc: 1.0000 - f1: 1.0000
190/190 [==============================] - 1s 4ms/step - loss: 0.0048 - acc: 1.0000 - f1: 1.0000 - val_loss: 1.3214 - val_acc: 0.4756 - val_f1: 0.4158
Epoch 40/60

 32/190 [====>.........................] - ETA: 0s - loss: 0.0183 - acc: 1.0000 - f1: 1.0000
 64/190 [=========>....................] - ETA: 0s - loss: 0.0098 - acc: 1.0000 - f1: 1.0000
 96/190 [==============>...............] - ETA: 0s - loss: 0.0075 - acc: 1.0000 - f1: 1.0000
128/190 [===================>..........] - ETA: 0s - loss: 0.0059 - acc: 1.0000 - f1: 1.0000
160/190 [========================>.....] - ETA: 0s - loss: 0.0049 - acc: 1.0000 - f1: 1.0000
190/190 [==============================] - 1s 4ms/step - loss: 0.0045 - acc: 1.0000 - f1: 1.0000 - val_loss: 1.3494 - val_acc: 0.4390 - val_f1: 0.3364
Epoch 41/60

 32/190 [====>.........................] - ETA: 0s - loss: 0.0081 - acc: 1.0000 - f1: 1.0000
 64/190 [=========>....................] - ETA: 0s - loss: 0.0060 - acc: 1.0000 - f1: 1.0000
 96/190 [==============>...............] - ETA: 0s - loss: 0.0078 - acc: 1.0000 - f1: 1.0000
128/190 [===================>..........] - ETA: 0s - loss: 0.0063 - acc: 1.0000 - f1: 1.0000
160/190 [========================>.....] - ETA: 0s - loss: 0.0061 - acc: 1.0000 - f1: 1.0000
190/190 [==============================] - 1s 4ms/step - loss: 0.0054 - acc: 1.0000 - f1: 1.0000 - val_loss: 1.4964 - val_acc: 0.3049 - val_f1: 0.3032
Epoch 42/60

 32/190 [====>.........................] - ETA: 0s - loss: 0.0017 - acc: 1.0000 - f1: 1.0000
 64/190 [=========>....................] - ETA: 0s - loss: 9.6678e-04 - acc: 1.0000 - f1: 1.0000
 96/190 [==============>...............] - ETA: 0s - loss: 0.0012 - acc: 1.0000 - f1: 1.0000    
128/190 [===================>..........] - ETA: 0s - loss: 0.0010 - acc: 1.0000 - f1: 1.0000
160/190 [========================>.....] - ETA: 0s - loss: 0.0011 - acc: 1.0000 - f1: 1.0000
190/190 [==============================] - 1s 4ms/step - loss: 0.0016 - acc: 1.0000 - f1: 1.0000 - val_loss: 1.4364 - val_acc: 0.4024 - val_f1: 0.3428
Epoch 43/60

 32/190 [====>.........................] - ETA: 0s - loss: 0.0026 - acc: 1.0000 - f1: 1.0000
 64/190 [=========>....................] - ETA: 0s - loss: 0.0019 - acc: 1.0000 - f1: 1.0000
 96/190 [==============>...............] - ETA: 0s - loss: 0.0020 - acc: 1.0000 - f1: 1.0000
128/190 [===================>..........] - ETA: 0s - loss: 0.0036 - acc: 1.0000 - f1: 1.0000
160/190 [========================>.....] - ETA: 0s - loss: 0.0030 - acc: 1.0000 - f1: 1.0000
190/190 [==============================] - 1s 4ms/step - loss: 0.0028 - acc: 1.0000 - f1: 1.0000 - val_loss: 1.3096 - val_acc: 0.5000 - val_f1: 0.5010
Epoch 44/60

 32/190 [====>.........................] - ETA: 0s - loss: 0.0132 - acc: 1.0000 - f1: 1.0000
 64/190 [=========>....................] - ETA: 0s - loss: 0.0174 - acc: 1.0000 - f1: 1.0000
 96/190 [==============>...............] - ETA: 0s - loss: 0.0118 - acc: 1.0000 - f1: 1.0000
128/190 [===================>..........] - ETA: 0s - loss: 0.0106 - acc: 1.0000 - f1: 1.0000
160/190 [========================>.....] - ETA: 0s - loss: 0.0089 - acc: 1.0000 - f1: 1.0000
190/190 [==============================] - 1s 4ms/step - loss: 0.0076 - acc: 1.0000 - f1: 1.0000 - val_loss: 1.4346 - val_acc: 0.4634 - val_f1: 0.3662
Epoch 45/60

 32/190 [====>.........................] - ETA: 0s - loss: 0.0014 - acc: 1.0000 - f1: 1.0000
 64/190 [=========>....................] - ETA: 0s - loss: 8.7272e-04 - acc: 1.0000 - f1: 1.0000
 96/190 [==============>...............] - ETA: 0s - loss: 0.0056 - acc: 1.0000 - f1: 1.0000    
128/190 [===================>..........] - ETA: 0s - loss: 0.0044 - acc: 1.0000 - f1: 1.0000
160/190 [========================>.....] - ETA: 0s - loss: 0.0037 - acc: 1.0000 - f1: 1.0000
190/190 [==============================] - 1s 4ms/step - loss: 0.0051 - acc: 1.0000 - f1: 1.0000 - val_loss: 1.6762 - val_acc: 0.3293 - val_f1: 0.3290
Epoch 46/60

 32/190 [====>.........................] - ETA: 0s - loss: 0.0012 - acc: 1.0000 - f1: 1.0000
 64/190 [=========>....................] - ETA: 0s - loss: 9.0864e-04 - acc: 1.0000 - f1: 1.0000
 96/190 [==============>...............] - ETA: 0s - loss: 0.0013 - acc: 1.0000 - f1: 1.0000    
128/190 [===================>..........] - ETA: 0s - loss: 0.0011 - acc: 1.0000 - f1: 1.0000
160/190 [========================>.....] - ETA: 0s - loss: 0.0017 - acc: 1.0000 - f1: 1.0000
190/190 [==============================] - 1s 4ms/step - loss: 0.0026 - acc: 1.0000 - f1: 1.0000 - val_loss: 1.5689 - val_acc: 0.3415 - val_f1: 0.3390
Epoch 47/60

 32/190 [====>.........................] - ETA: 0s - loss: 0.0029 - acc: 1.0000 - f1: 1.0000
 64/190 [=========>....................] - ETA: 0s - loss: 0.0054 - acc: 1.0000 - f1: 1.0000
 96/190 [==============>...............] - ETA: 0s - loss: 0.0043 - acc: 1.0000 - f1: 1.0000
128/190 [===================>..........] - ETA: 0s - loss: 0.0033 - acc: 1.0000 - f1: 1.0000
160/190 [========================>.....] - ETA: 0s - loss: 0.0029 - acc: 1.0000 - f1: 1.0000
190/190 [==============================] - 1s 4ms/step - loss: 0.0050 - acc: 1.0000 - f1: 1.0000 - val_loss: 1.3577 - val_acc: 0.4878 - val_f1: 0.4752
Epoch 48/60

 32/190 [====>.........................] - ETA: 0s - loss: 0.0010 - acc: 1.0000 - f1: 1.0000
 64/190 [=========>....................] - ETA: 0s - loss: 6.2589e-04 - acc: 1.0000 - f1: 1.0000
 96/190 [==============>...............] - ETA: 0s - loss: 7.8576e-04 - acc: 1.0000 - f1: 1.0000
128/190 [===================>..........] - ETA: 0s - loss: 0.0015 - acc: 1.0000 - f1: 1.0000    
160/190 [========================>.....] - ETA: 0s - loss: 0.0013 - acc: 1.0000 - f1: 1.0000
190/190 [==============================] - 1s 4ms/step - loss: 0.0013 - acc: 1.0000 - f1: 1.0000 - val_loss: 1.4345 - val_acc: 0.4512 - val_f1: 0.4463
Epoch 49/60

 32/190 [====>.........................] - ETA: 0s - loss: 9.3648e-04 - acc: 1.0000 - f1: 1.0000
 64/190 [=========>....................] - ETA: 0s - loss: 8.6538e-04 - acc: 1.0000 - f1: 1.0000
 96/190 [==============>...............] - ETA: 0s - loss: 0.0012 - acc: 1.0000 - f1: 1.0000    
128/190 [===================>..........] - ETA: 0s - loss: 0.0010 - acc: 1.0000 - f1: 1.0000
160/190 [========================>.....] - ETA: 0s - loss: 0.0013 - acc: 1.0000 - f1: 1.0000
190/190 [==============================] - 1s 5ms/step - loss: 0.0017 - acc: 1.0000 - f1: 1.0000 - val_loss: 1.4604 - val_acc: 0.4634 - val_f1: 0.4607
Epoch 50/60

 32/190 [====>.........................] - ETA: 0s - loss: 7.4158e-04 - acc: 1.0000 - f1: 1.0000
 64/190 [=========>....................] - ETA: 0s - loss: 8.0684e-04 - acc: 1.0000 - f1: 1.0000
 96/190 [==============>...............] - ETA: 0s - loss: 0.0011 - acc: 1.0000 - f1: 1.0000    
128/190 [===================>..........] - ETA: 0s - loss: 9.8830e-04 - acc: 1.0000 - f1: 1.0000
160/190 [========================>.....] - ETA: 0s - loss: 0.0014 - acc: 1.0000 - f1: 1.0000    
190/190 [==============================] - 1s 5ms/step - loss: 0.0013 - acc: 1.0000 - f1: 1.0000 - val_loss: 1.4141 - val_acc: 0.4878 - val_f1: 0.4796
Epoch 51/60

 32/190 [====>.........................] - ETA: 0s - loss: 0.0188 - acc: 1.0000 - f1: 1.0000
 64/190 [=========>....................] - ETA: 0s - loss: 0.0096 - acc: 1.0000 - f1: 1.0000
 96/190 [==============>...............] - ETA: 0s - loss: 0.0074 - acc: 1.0000 - f1: 1.0000
128/190 [===================>..........] - ETA: 0s - loss: 0.0057 - acc: 1.0000 - f1: 1.0000
160/190 [========================>.....] - ETA: 0s - loss: 0.0052 - acc: 1.0000 - f1: 1.0000
190/190 [==============================] - 1s 4ms/step - loss: 0.0044 - acc: 1.0000 - f1: 1.0000 - val_loss: 1.3618 - val_acc: 0.4878 - val_f1: 0.4526
Epoch 52/60

 32/190 [====>.........................] - ETA: 0s - loss: 4.7368e-04 - acc: 1.0000 - f1: 1.0000
 64/190 [=========>....................] - ETA: 0s - loss: 4.7103e-04 - acc: 1.0000 - f1: 1.0000
 96/190 [==============>...............] - ETA: 0s - loss: 3.9037e-04 - acc: 1.0000 - f1: 1.0000
128/190 [===================>..........] - ETA: 0s - loss: 0.0012 - acc: 1.0000 - f1: 1.0000    
160/190 [========================>.....] - ETA: 0s - loss: 0.0011 - acc: 1.0000 - f1: 1.0000
190/190 [==============================] - 1s 4ms/step - loss: 0.0010 - acc: 1.0000 - f1: 1.0000 - val_loss: 1.3492 - val_acc: 0.4878 - val_f1: 0.4947
Epoch 53/60

 32/190 [====>.........................] - ETA: 0s - loss: 4.1860e-04 - acc: 1.0000 - f1: 1.0000
 64/190 [=========>....................] - ETA: 0s - loss: 3.5303e-04 - acc: 1.0000 - f1: 1.0000
 96/190 [==============>...............] - ETA: 0s - loss: 3.5815e-04 - acc: 1.0000 - f1: 1.0000
128/190 [===================>..........] - ETA: 0s - loss: 3.6363e-04 - acc: 1.0000 - f1: 1.0000
160/190 [========================>.....] - ETA: 0s - loss: 3.5365e-04 - acc: 1.0000 - f1: 1.0000
190/190 [==============================] - 1s 4ms/step - loss: 5.1247e-04 - acc: 1.0000 - f1: 1.0000 - val_loss: 1.3398 - val_acc: 0.4756 - val_f1: 0.4305
Epoch 54/60

 32/190 [====>.........................] - ETA: 0s - loss: 4.3912e-04 - acc: 1.0000 - f1: 1.0000
 64/190 [=========>....................] - ETA: 0s - loss: 2.6983e-04 - acc: 1.0000 - f1: 1.0000
 96/190 [==============>...............] - ETA: 0s - loss: 2.7394e-04 - acc: 1.0000 - f1: 1.0000
128/190 [===================>..........] - ETA: 0s - loss: 2.2456e-04 - acc: 1.0000 - f1: 1.0000
160/190 [========================>.....] - ETA: 0s - loss: 0.0052 - acc: 0.9938 - f1: 0.9937    
190/190 [==============================] - 1s 4ms/step - loss: 0.0044 - acc: 0.9947 - f1: 0.9947 - val_loss: 1.6911 - val_acc: 0.3293 - val_f1: 0.3357
Epoch 55/60

 32/190 [====>.........................] - ETA: 0s - loss: 1.5284e-04 - acc: 1.0000 - f1: 1.0000
 64/190 [=========>....................] - ETA: 0s - loss: 1.5244e-04 - acc: 1.0000 - f1: 1.0000
 96/190 [==============>...............] - ETA: 0s - loss: 1.6054e-04 - acc: 1.0000 - f1: 1.0000
128/190 [===================>..........] - ETA: 0s - loss: 0.0011 - acc: 1.0000 - f1: 1.0000    
160/190 [========================>.....] - ETA: 0s - loss: 9.3248e-04 - acc: 1.0000 - f1: 1.0000
190/190 [==============================] - 1s 4ms/step - loss: 8.7110e-04 - acc: 1.0000 - f1: 1.0000 - val_loss: 1.6212 - val_acc: 0.3659 - val_f1: 0.3376
Epoch 56/60

 32/190 [====>.........................] - ETA: 0s - loss: 8.7138e-04 - acc: 1.0000 - f1: 1.0000
 64/190 [=========>....................] - ETA: 0s - loss: 5.7831e-04 - acc: 1.0000 - f1: 1.0000
 96/190 [==============>...............] - ETA: 0s - loss: 5.0040e-04 - acc: 1.0000 - f1: 1.0000
128/190 [===================>..........] - ETA: 0s - loss: 6.1284e-04 - acc: 1.0000 - f1: 1.0000
160/190 [========================>.....] - ETA: 0s - loss: 7.3877e-04 - acc: 1.0000 - f1: 1.0000
190/190 [==============================] - 1s 4ms/step - loss: 6.6529e-04 - acc: 1.0000 - f1: 1.0000 - val_loss: 1.5855 - val_acc: 0.4024 - val_f1: 0.3688
Epoch 57/60

 32/190 [====>.........................] - ETA: 0s - loss: 0.0013 - acc: 1.0000 - f1: 1.0000
 64/190 [=========>....................] - ETA: 0s - loss: 6.8547e-04 - acc: 1.0000 - f1: 1.0000
 96/190 [==============>...............] - ETA: 0s - loss: 5.4789e-04 - acc: 1.0000 - f1: 1.0000
128/190 [===================>..........] - ETA: 0s - loss: 0.0027 - acc: 1.0000 - f1: 1.0000    
160/190 [========================>.....] - ETA: 0s - loss: 0.0023 - acc: 1.0000 - f1: 1.0000
190/190 [==============================] - 1s 4ms/step - loss: 0.0021 - acc: 1.0000 - f1: 1.0000 - val_loss: 1.6288 - val_acc: 0.3902 - val_f1: 0.3578
Epoch 58/60

 32/190 [====>.........................] - ETA: 0s - loss: 2.9995e-04 - acc: 1.0000 - f1: 1.0000
 64/190 [=========>....................] - ETA: 0s - loss: 0.0014 - acc: 1.0000 - f1: 1.0000    
 96/190 [==============>...............] - ETA: 0s - loss: 0.0023 - acc: 1.0000 - f1: 1.0000
128/190 [===================>..........] - ETA: 0s - loss: 0.0018 - acc: 1.0000 - f1: 1.0000
160/190 [========================>.....] - ETA: 0s - loss: 0.0019 - acc: 1.0000 - f1: 1.0000
190/190 [==============================] - 1s 4ms/step - loss: 0.0017 - acc: 1.0000 - f1: 1.0000 - val_loss: 1.6743 - val_acc: 0.3902 - val_f1: 0.3490
Epoch 59/60

 32/190 [====>.........................] - ETA: 0s - loss: 4.3749e-04 - acc: 1.0000 - f1: 1.0000
 64/190 [=========>....................] - ETA: 0s - loss: 3.1465e-04 - acc: 1.0000 - f1: 1.0000
 96/190 [==============>...............] - ETA: 0s - loss: 0.0019 - acc: 1.0000 - f1: 1.0000    
128/190 [===================>..........] - ETA: 0s - loss: 0.0018 - acc: 1.0000 - f1: 1.0000
160/190 [========================>.....] - ETA: 0s - loss: 0.0018 - acc: 1.0000 - f1: 1.0000
190/190 [==============================] - 1s 4ms/step - loss: 0.0020 - acc: 1.0000 - f1: 1.0000 - val_loss: 1.4420 - val_acc: 0.4024 - val_f1: 0.3894
Epoch 60/60

 32/190 [====>.........................] - ETA: 0s - loss: 0.0030 - acc: 1.0000 - f1: 1.0000
 64/190 [=========>....................] - ETA: 0s - loss: 0.0024 - acc: 1.0000 - f1: 1.0000
 96/190 [==============>...............] - ETA: 0s - loss: 0.0017 - acc: 1.0000 - f1: 1.0000
128/190 [===================>..........] - ETA: 0s - loss: 0.0014 - acc: 1.0000 - f1: 1.0000
160/190 [========================>.....] - ETA: 0s - loss: 0.0012 - acc: 1.0000 - f1: 1.0000
190/190 [==============================] - 1s 4ms/step - loss: 0.0012 - acc: 1.0000 - f1: 1.0000 - val_loss: 1.5391 - val_acc: 0.4756 - val_f1: 0.4219

 32/135 [======>.......................] - ETA: 0s
 96/135 [====================>.........] - ETA: 0s
135/135 [==============================] - 0s 1ms/step

teste
loss = 1.415248 , acc = 0.429630, f1 = 0.420898
